day_2
…
phy_texts <- read_csv("data/classic_physics_texts.csv")

## 
##  Column specification 
## cols(
##   gutenberg_id = col_double(),
##   text = col_character(),
##   author = col_character()
## )

phy_texts %>% select(text) %>% 
  na.omit()

## # A tibble: 13,247 x 1
##    text                                                                      
##    <chr>                                                                     
##  1 EXPERIMENTS WITH ALTERNATE CURRENTS OF HIGH POTENTIAL AND HIGH FREQUENCY  
##  2 A Lecture Delivered before the Institution of Electrical Engineers, London
##  3 by                                                                        
##  4 NIKOLA TESLA                                                              
##  5 With a Portrait and Biographical Sketch of the Author                     
##  6 NEW YORK                                                                  
##  7 1892                                                                      
##  8 Biographical Sketch of Nikola Tesla.                                      
##  9 While a large portion of the European family has been surging westward    
## 10 during the last three or four hundred years, settling the vast            
## #  with 13,237 more rows
…
total_words <- phy_texts_words %>% 
  group_by(author) %>% 
  summarize(total = sum(n))

phy_texts_words <- left_join(phy_texts_words, total_words)

## Joining, by = "author"

phy_texts_words

## # A tibble: 12,675 x 4
##    author              word      n total
##    <chr>               <chr> <int> <int>
##  1 Galilei, Galileo    the    3760 40772
##  2 Tesla, Nikola       the    3604 39819
##  3 Huygens, Christiaan the    3553 38776
##  4 Einstein, Albert    the    2993 32223
##  5 Galilei, Galileo    of     2049 40772
##  6 Einstein, Albert    of     2028 32223
##  7 Tesla, Nikola       of     1737 39819
##  8 Huygens, Christiaan of     1708 38776
##  9 Huygens, Christiaan to     1207 38776
## 10 Tesla, Nikola       a      1176 39819
## #  with 12,665 more rows
…
phy_texts_tf_idf <- phy_texts_words %>%
  bind_tf_idf(word, author, n) %>%
  mutate(author = factor(author, levels = c("Galilei, Galileo",
                                            "Huygens, Christiaan", 
                                            "Tesla, Nikola",
                                            "Einstein, Albert")))

phy_texts_tf_idf %>% 
  select(author, word, tf_idf) %>% 
    arrange(desc(tf_idf))

## # A tibble: 12,675 x 3
##    author              word           tf_idf
##    <fct>               <chr>           <dbl>
##  1 Einstein, Albert    relativity    0.00830
##  2 Tesla, Nikola       bulb          0.00595
##  3 Galilei, Galileo    water         0.00584
##  4 Tesla, Nikola       coil          0.00578
##  5 Tesla, Nikola       wire          0.00463
##  6 Galilei, Galileo    hath          0.00449
##  7 Huygens, Christiaan refraction    0.00390
##  8 Einstein, Albert    theory        0.00389
##  9 Einstein, Albert    _k_           0.00374
## 10 Einstein, Albert    gravitational 0.00374
## #  with 12,665 more rows
…
