R Text Analysis - day 2
…
there are a variety of methods and dictionaries that exist for evaluating the opinion or emotion in text. The tidytext package provides access to several sentiment lexicons. Three general-purpose lexicons are

AFINN from Finn rup Nielsen,

bing from Bing Liu and collaborators, and

nrc from Saif Mohammad and Peter Turney.

All three of these lexicons are based on unigrams, i.e., single words. These lexicons contain many English words and the words are assigned scores for positive/negative sentiment, and also possibly emotions like joy, anger, sadness, and so forth. The nrc lexicon categorizes words in a binary fashion (yes/no) into categories of positive, negative, anger, anticipation, disgust, fear, joy, sadness, surprise, and trust. The bing lexicon categorizes words in a binary fashion into positive and negative categories. The AFINN lexicon assigns words with a score that runs between -5 and 5, with negative scores indicating negative sentiment and positive scores indicating positive sentiment.

We can access these sentiment dictionaries via tidytexts get_sentiment() function.

get_sentiments("afinn")

## # A tibble: 2,477 x 2
##    word       value
##    <chr>      <dbl>
##  1 abandon       -2
##  2 abandoned     -2
##  3 abandons      -2
##  4 abducted      -2
##  5 abduction     -2
##  6 abductions    -2
##  7 abhor         -3
##  8 abhorred      -3
##  9 abhorrent     -3
## 10 abhors        -3
## #  with 2,467 more rows

get_sentiments("bing")

## # A tibble: 6,786 x 2
##    word        sentiment
##    <chr>       <chr>    
##  1 2-faces     negative 
##  2 abnormal    negative 
##  3 abolish     negative 
##  4 abominable  negative 
##  5 abominably  negative 
##  6 abominate   negative 
##  7 abomination negative 
##  8 abort       negative 
##  9 aborted     negative 
## 10 aborts      negative 
## #  with 6,776 more rows

get_sentiments("nrc")

## # A tibble: 13,901 x 2
##    word        sentiment
##    <chr>       <chr>    
##  1 abacus      trust    
##  2 abandon     fear     
##  3 abandon     negative 
##  4 abandon     sadness  
##  5 abandoned   anger    
##  6 abandoned   fear     
##  7 abandoned   negative 
##  8 abandoned   sadness  
##  9 abandonment anger    
## 10 abandonment fear     
## #  with 13,891 more rows
…
time_of_day_pattern <- "(\\d+:\\d+:\\d+.-\\d+)"

at_df_clean <- airline_tweets %>% 
  mutate(text = str_remove_all(text, twitter_handle_pattern),
         text = str_remove_all(text, url_pattern),
         text = str_remove_all(text, hashtag_pattern),
         text = str_remove_all(text, digit_pattern),
         text = str_remove_all(text, "[[:punct:]]"), 
         tweet_created = str_remove_all(tweet_created, time_of_day_pattern),
         tweet_created = as.Date(tweet_created))

at_df_clean %>% select(text)

## # A tibble: 14,640 x 1
##    text                                                                         
##    <chr>                                                                        
##  1 " What  said"                                                                
##  2 " plus youve added commercials to the experience tacky"                      
##  3 " I didnt today Must mean I need to take another trip"                       
##  4 " its really aggressive to blast obnoxious entertainment in your guests face
##  5 " and its a really big bad thing about it"                                   
##  6 " seriously would pay $ a flight for seats that didnt have this playing\nits
##  7 " yes nearly every time I fly VX this ear worm wont go away "                
##  8 " Really missed a prime opportunity for Men Without Hats parody there "      
##  9 " Well I didntbut NOW I DO D"                                                
## 10 " it was amazing and arrived an hour early Youre too good to me"             
## #  with 14,630 more rows

at_df_tokens <- at_df_clean %>% 
  unnest_tokens(word, text) %>% 
  inner_join(get_sentiments("afinn"), by = "word") %>% 
  group_by(tweet_created, airline) %>% 
  summarise(sentiment = sum(value)) 
  
at_df_tokens

## # A tibble: 47 x 3
## # Groups:   tweet_created [9]
##    tweet_created airline        sentiment
##    <date>        <chr>              <dbl>
##  1 2015-02-16    Delta                  0
##  2 2015-02-16    United                 1
##  3 2015-02-17    Delta                273
##  4 2015-02-17    Southwest            209
##  5 2015-02-17    United                34
##  6 2015-02-17    US Airways            36
##  7 2015-02-17    Virgin America        49
##  8 2015-02-18    Delta                299
##  9 2015-02-18    Southwest            223
## 10 2015-02-18    United               147
## #  with 37 more rows
…
1 Bag of words and DTM

First, we need to turn the text into numbers for our classifier. Were going to use a bag of words as our features. A bag of words is just like a frequency count of all the words that appear in a tweet. Its called a bag because we ignore the order of the words; we just care about what words are in the tweet. To do this, we can use the cast_dtm() function from day 2, after weve done a little preprocessing, of course.

at_classify_clean <- at_classify %>% 
  select(text, airline_sentiment) %>% 
  mutate(text = str_remove_all(text, twitter_handle_pattern),
         text = str_remove_all(text, url_pattern),
         text = str_remove_all(text, hashtag_pattern),
          text = str_remove_all(text, digit_pattern),
          text = str_remove_all(text, "[[:punct:]]")) 

at_classify_clean %>% select(text)

## # A tibble: 11,541 x 1
##    text                                                                         
##    <chr>                                                                        
##  1 " plus youve added commercials to the experience tacky"                      
##  2 " its really aggressive to blast obnoxious entertainment in your guests face
##  3 " and its a really big bad thing about it"                                   
##  4 " seriously would pay $ a flight for seats that didnt have this playing\nits
##  5 " yes nearly every time I fly VX this ear worm wont go away "                
##  6 " Well I didntbut NOW I DO D"                                                
##  7 " it was amazing and arrived an hour early Youre too good to me"             
##  8 " I lt pretty graphics so much better than minimal iconography D"            
##  9 " This is such a great deal Already thinking about my nd trip to  amp I have
## 10 "  Im flying your skies again U take all the away from travel "              
## #  with 11,531 more rows
…
